{
	"category" : "Mosaic",
	"classinstvars" : [
		 ],
	"classvars" : [
		 ],
	"commentStamp" : "dto 1/30/2022 17:27",
	"instvars" : [
		 ],
	"name" : "MosaicSearchTask",
	"pools" : [
		 ],
	"super" : "MosaicTask",
	"type" : "normal" }
