{
	"category" : "Mosaic",
	"classinstvars" : [
		 ],
	"classvars" : [
		 ],
	"commentStamp" : "",
	"instvars" : [
		"schemeClassChooser",
		"rowNumberLabel",
		"pairsContainer" ],
	"name" : "MosaicChopperTaskUi",
	"pools" : [
		 ],
	"super" : "UserInterface",
	"type" : "normal" }
