{
	"category" : "Mosaic",
	"classinstvars" : [
		 ],
	"classvars" : [
		 ],
	"commentStamp" : "dto 1/30/2022 17:26",
	"instvars" : [
		"ui" ],
	"name" : "MosaicSchemePair",
	"pools" : [
		 ],
	"super" : "Morph",
	"type" : "normal" }
