{
	"class" : {
		 },
	"instance" : {
		"addTaskButton" : "dto 1/23/2022 18:04",
		"autoDetectBeatsPerMinute" : "dto 1/23/2022 18:04",
		"beatsPerMinute" : "dto 1/23/2022 18:04",
		"deleteTaskButton" : "dto 1/23/2022 18:04",
		"initializePanel" : "dto 10/27/2022 05:01",
		"renderButton" : "dto 1/23/2022 18:04",
		"sliceSize" : "dto 1/23/2022 18:04",
		"taskContainer" : "dto 1/23/2022 18:04" } }
