{
	"category" : "Mosaic",
	"classinstvars" : [
		 ],
	"classvars" : [
		 ],
	"commentStamp" : "dto 1/30/2022 17:28",
	"instvars" : [
		 ],
	"name" : "MosaicTrimTask",
	"pools" : [
		 ],
	"super" : "MosaicStretchTask",
	"type" : "normal" }
