{
	"category" : "Mosaic",
	"classinstvars" : [
		 ],
	"classvars" : [
		 ],
	"commentStamp" : "dto 1/30/2022 17:23",
	"instvars" : [
		 ],
	"name" : "MosaicFileCell",
	"pools" : [
		 ],
	"super" : "MosaicCellMorph",
	"type" : "normal" }
