{
	"class" : {
		"instrumentKeyForName:" : "dto 1/31/2022 17:24",
		"instrumentKeyForSpectrumKey:" : "dto 2/1/2022 13:11",
		"instrumentNamesAndKeys" : "dto 2/1/2022 12:52",
		"loadMoorerSpectraFromFile:" : "dto 2/2/2022 04:26",
		"moorerSpectra" : "dto 1/31/2022 17:02",
		"moorerSpectra:" : "dto 1/31/2022 17:02",
		"noteKeyForSpectrumKey:" : "dto 2/1/2022 13:11",
		"noteNumberForSpectrumKey:" : "dto 2/1/2022 14:09",
		"partialsForNote:onInstrument:" : "dto 2/4/2022 18:32" },
	"instance" : {
		"moorerSpectra" : "dto 1/31/2022 17:02" } }
