{
	"category" : "Mosaic",
	"classinstvars" : [
		 ],
	"classvars" : [
		 ],
	"commentStamp" : "",
	"instvars" : [
		"myScheme" ],
	"name" : "MosaicGenericTask",
	"pools" : [
		 ],
	"super" : "MosaicTask",
	"type" : "normal" }
